.cabecalho{
    display: flex;
    width: 100%;
    height: 90px;
    left: 0px;
    top: 0px;

    background: #174E73;
}
.cabecalho-nav{
    font-family: Verdana;
    font-style: normal;
    font-weight: normal;
    font-size: 22px;
    line-height: 50px;

    color: #FFFFFF;
}
.login{
    position: absolute;
    vertical-align: middle;
    width: 87px;
    height: 41px;
    right: 550px;
    top: 22px;
}
.cadastro{
    position: absolute;
    vertical-align: middle;
    width: 93px;
    height: 41px;
    left: 1600px;
    top:22px;
}
.logo{
    position: absolute;
    vertical-align: middle;
    width: 93px;
    height: 41px;
    left: 30px;
    top:15px;
}
.img{
    position: absolute;
    padding: 5px;
    width: 593px;
    height: 587px;
    left: 30px;
    top: 149px;
}
.titulo{
    position: absolute;;
    width: 370px;
    height: 53px;
    left: 1400px;
    top: 149px;
}
.font{
    font-family: Verdana;
    font-style: normal;
    font-weight: normal;
    font-size: 30px;
    line-height: 53px;
}
.texto{
    font-family: Verdana;
    text-align: left;
    font-style: normal;
    font-weight: normal;
    font-size: 20px;
    color: #4F4949;
}
.log{
    position: absolute;
    background-color: #174E73;
    width: 100%;
    height: 100%;
    top: 0px;
    left: 0px;
}
.img-fundo{
    width: 100%;
    height: 100%;
    top: 0px;
    left: 0px;
    right: 0px;
    opacity: 0.15;
}
.Tlogin{

   display: flex;
   justify-content: center;
   top: 150px;

}